regression_models
…
Linking to health data

read_csv("./patient_mi_data/patients_mi.csv")

## Parsed with column specification:
## cols(
##   gender = col_character(),
##   `admission date(year)` = col_double(),
##   `admission date(month)` = col_double(),
##   `main discharge diagnosis` = col_character()
## )

## # A tibble: 81,029 x 4
##    gender `admission date(yea~ `admission date(mont~ `main discharge diagn~
##    <chr>                 <dbl>                 <dbl> <chr>                 
##  1 male                   2013                     1 I21.403               
##  2 male                   2013                     1 I21.403               
##  3 male                   2013                     1 I21.103               
##  4 female                 2013                     1 I21.103               
##  5 male                   2013                     1 I21.002               
##  6 male                   2013                     1 I21.103               
##  7 male                   2013                     1 I21.103               
##  8 female                 2013                     2 I21.002               
##  9 female                 2013                     2 I21.207               
## 10 female                 2013                     1 I21.403               
## # ... with 81,019 more rows
